%YAML 1.1
%TAG !u! tag:unity3d.com,2011:
--- !u!1 &835671991367858454
GameObject:
  m_ObjectHideFlags: 0
  m_CorrespondingSourceObject: {fileID: 0}
  m_PrefabInstance: {fileID: 0}
  m_PrefabAsset: {fileID: 0}
  serializedVersion: 6
  m_Component:
  - component: {fileID: 6637760800630029355}
  m_Layer: 0
  m_Name: GameObject (3)
  m_TagString: Untagged
  m_Icon: {fileID: 0}
  m_NavMeshLayer: 0
  m_StaticEditorFlags: 0
  m_IsActive: 1
--- !u!4 &6637760800630029355
Transform:
  m_ObjectHideFlags: 0
  m_CorrespondingSourceObject: {fileID: 0}
  m_PrefabInstance: {fileID: 0}
  m_PrefabAsset: {fileID: 0}
  m_GameObject: {fileID: 835671991367858454}
  m_LocalRotation: {x: -0, y: -0, z: -0, w: 1}
  m_LocalPosition: {x: -2.5148306, y: 3.126482, z: -0.3773}
  m_LocalScale: {x: 1, y: 1, z: 0.02}
  m_Children:
  - {fileID: 561399785717677866}
  m_Father: {fileID: 7268551754738219860}
  m_RootOrder: 17
  m_LocalEulerAnglesHint: {x: 0, y: 0, z: 0}
--- !u!1 &2527071506591984823
GameObject:
  m_ObjectHideFlags: 0
  m_CorrespondingSourceObject: {fileID: 0}
  m_PrefabInstance: {fileID: 0}
  m_PrefabAsset: {fileID: 0}
  serializedVersion: 6
  m_Component:
  - component: {fileID: 3282147312836395931}
  m_Layer: 0
  m_Name: GameObject (1)
  m_TagString: Untagged
  m_Icon: {fileID: 0}
  m_NavMeshLayer: 0
  m_StaticEditorFlags: 0
  m_IsActive: 1
--- !u!4 &3282147312836395931
Transform:
  m_ObjectHideFlags: 0
  m_CorrespondingSourceObject: {fileID: 0}
  m_PrefabInstance: {fileID: 0}
  m_PrefabAsset: {fileID: 0}
  m_GameObject: {fileID: 2527071506591984823}
  m_LocalRotation: {x: -0.000000037748954, y: -1.110223e-16, z: 1.11022296e-16, w: 1}
  m_LocalPosition: {x: -0.037891388, y: 0.53, z: 0.359}
  m_LocalScale: {x: 0.78, y: 0.78, z: 0.015599998}
  m_Children:
  - {fileID: 6124877579155117856}
  m_Father: {fileID: 7268551754738219860}
  m_RootOrder: 15
  m_LocalEulerAnglesHint: {x: 0, y: 0, z: 0}
--- !u!1 &4668489860272303565
GameObject:
  m_ObjectHideFlags: 0
  m_CorrespondingSourceObject: {fileID: 0}
  m_PrefabInstance: {fileID: 0}
  m_PrefabAsset: {fileID: 0}
  serializedVersion: 6
  m_Component:
  - component: {fileID: 7268551754738219860}
  - component: {fileID: 6930672632129467541}
  - component: {fileID: 7663191092215992231}
  - component: {fileID: 8537323978684809018}
  - component: {fileID: 2152638284830010961}
  m_Layer: 0
  m_Name: grass (2)
  m_TagString: Untagged
  m_Icon: {fileID: 0}
  m_NavMeshLayer: 0
  m_StaticEditorFlags: 0
  m_IsActive: 1
--- !u!4 &7268551754738219860
Transform:
  m_ObjectHideFlags: 0
  m_CorrespondingSourceObject: {fileID: 0}
  m_PrefabInstance: {fileID: 0}
  m_PrefabAsset: {fileID: 0}
  m_GameObject: {fileID: 4668489860272303565}
  m_LocalRotation: {x: 0, y: 0, z: 0, w: 1}
  m_LocalPosition: {x: 10.2, y: 1.1683046, z: -0.119421065}
  m_LocalScale: {x: 1, y: 1, z: 50}
  m_Children:
  - {fileID: 7147250741453075446}
  - {fileID: 5204396496135959139}
  - {fileID: 8743844162039406196}
  - {fileID: 7626692598599655305}
  - {fileID: 9141489239539363623}
  - {fileID: 6442091846309514236}
  - {fileID: 8795507420095849236}
  - {fileID: 7233785417567013765}
  - {fileID: 3535150744433820766}
  - {fileID: 6893572796090720727}
  - {fileID: 7193646551457265992}
  - {fileID: 4213814800125462985}
  - {fileID: 6476150244119410262}
  - {fileID: 4532184815443987996}
  - {fileID: 3708432983657673310}
  - {fileID: 3282147312836395931}
  - {fileID: 7536174077937731680}
  - {fileID: 6637760800630029355}
  - {fileID: 3811603485293676453}
  - {fileID: 4015377964293977561}
  m_Father: {fileID: 0}
  m_RootOrder: 0
  m_LocalEulerAnglesHint: {x: 0, y: 0, z: 0}
--- !u!33 &6930672632129467541
MeshFilter:
  m_ObjectHideFlags: 0
  m_CorrespondingSourceObject: {fileID: 0}
  m_PrefabInstance: {fileID: 0}
  m_PrefabAsset: {fileID: 0}
  m_GameObject: {fileID: 4668489860272303565}
  m_Mesh: {fileID: 10202, guid: 0000000000000000e000000000000000, type: 0}
--- !u!23 &7663191092215992231
MeshRenderer:
  m_ObjectHideFlags: 0
  m_CorrespondingSourceObject: {fileID: 0}
  m_PrefabInstance: {fileID: 0}
  m_PrefabAsset: {fileID: 0}
  m_GameObject: {fileID: 4668489860272303565}
  m_Enabled: 1
  m_CastShadows: 1
  m_ReceiveShadows: 1
  m_DynamicOccludee: 1
  m_MotionVectors: 1
  m_LightProbeUsage: 1
  m_ReflectionProbeUsage: 1
  m_RayTracingMode: 2
  m_RenderingLayerMask: 1
  m_RendererPriority: 0
  m_Materials:
  - {fileID: 2100000, guid: 0c63f70fb627fbf4bb013b56d4812195, type: 2}
  m_StaticBatchInfo:
    firstSubMesh: 0
    subMeshCount: 0
  m_StaticBatchRoot: {fileID: 0}
  m_ProbeAnchor: {fileID: 0}
  m_LightProbeVolumeOverride: {fileID: 0}
  m_ScaleInLightmap: 1
  m_ReceiveGI: 1
  m_PreserveUVs: 0
  m_IgnoreNormalsForChartDetection: 0
  m_ImportantGI: 0
  m_StitchLightmapSeams: 1
  m_SelectedEditorRenderState: 3
  m_MinimumChartSize: 4
  m_AutoUVMaxDistance: 0.5
  m_AutoUVMaxAngle: 89
  m_LightmapParameters: {fileID: 0}
  m_SortingLayerID: 0
  m_SortingLayer: 0
  m_SortingOrder: 0
--- !u!65 &8537323978684809018
BoxCollider:
  m_ObjectHideFlags: 0
  m_CorrespondingSourceObject: {fileID: 0}
  m_PrefabInstance: {fileID: 0}
  m_PrefabAsset: {fileID: 0}
  m_GameObject: {fileID: 4668489860272303565}
  m_Material: {fileID: 0}
  m_IsTrigger: 0
  m_Enabled: 1
  serializedVersion: 2
  m_Size: {x: 1, y: 1, z: 1}
  m_Center: {x: 0, y: 0, z: 0}
--- !u!114 &2152638284830010961
MonoBehaviour:
  m_ObjectHideFlags: 0
  m_CorrespondingSourceObject: {fileID: 0}
  m_PrefabInstance: {fileID: 0}
  m_PrefabAsset: {fileID: 0}
  m_GameObject: {fileID: 4668489860272303565}
  m_Enabled: 1
  m_EditorHideFlags: 0
  m_Script: {fileID: 11500000, guid: 7ede67ed6450e974e8254ace377a79bc, type: 3}
  m_Name: 
  m_EditorClassIdentifier: 
  vehicle: {fileID: 7404465639303859965, guid: 8898fd76680930d4aa4b3225a9b7e5bb, type: 3}
  spawnPos: {fileID: 4015377964293977561}
  minSeparationTime: 5
  maxSeparationTime: 16
  isRightSide: 0
--- !u!1 &5661056418006295587
GameObject:
  m_ObjectHideFlags: 0
  m_CorrespondingSourceObject: {fileID: 0}
  m_PrefabInstance: {fileID: 0}
  m_PrefabAsset: {fileID: 0}
  serializedVersion: 6
  m_Component:
  - component: {fileID: 3811603485293676453}
  m_Layer: 0
  m_Name: GameObject (4)
  m_TagString: Untagged
  m_Icon: {fileID: 0}
  m_NavMeshLayer: 0
  m_StaticEditorFlags: 0
  m_IsActive: 1
--- !u!4 &3811603485293676453
Transform:
  m_ObjectHideFlags: 0
  m_CorrespondingSourceObject: {fileID: 0}
  m_PrefabInstance: {fileID: 0}
  m_PrefabAsset: {fileID: 0}
  m_GameObject: {fileID: 5661056418006295587}
  m_LocalRotation: {x: -0, y: -0, z: -0, w: 1}
  m_LocalPosition: {x: -3.2, y: 3.126482, z: -0.3273963}
  m_LocalScale: {x: 1, y: 1, z: 0.02}
  m_Children:
  - {fileID: 4657348006090666931}
  m_Father: {fileID: 7268551754738219860}
  m_RootOrder: 18
  m_LocalEulerAnglesHint: {x: 0, y: 0, z: 0}
--- !u!1 &6062906954814863012
GameObject:
  m_ObjectHideFlags: 0
  m_CorrespondingSourceObject: {fileID: 0}
  m_PrefabInstance: {fileID: 0}
  m_PrefabAsset: {fileID: 0}
  serializedVersion: 6
  m_Component:
  - component: {fileID: 3708432983657673310}
  m_Layer: 0
  m_Name: GameObject
  m_TagString: Untagged
  m_Icon: {fileID: 0}
  m_NavMeshLayer: 0
  m_StaticEditorFlags: 0
  m_IsActive: 1
--- !u!4 &3708432983657673310
Transform:
  m_ObjectHideFlags: 0
  m_CorrespondingSourceObject: {fileID: 0}
  m_PrefabInstance: {fileID: 0}
  m_PrefabAsset: {fileID: 0}
  m_GameObject: {fileID: 6062906954814863012}
  m_LocalRotation: {x: -0.000000037748954, y: -1.110223e-16, z: 1.11022296e-16, w: 1}
  m_LocalPosition: {x: -0.037891388, y: 0.53, z: 0.2815}
  m_LocalScale: {x: 0.78, y: 0.78, z: 0.015599998}
  m_Children:
  - {fileID: 642981170031981642}
  m_Father: {fileID: 7268551754738219860}
  m_RootOrder: 14
  m_LocalEulerAnglesHint: {x: 0, y: 0, z: 0}
--- !u!1 &7067873317212873151
GameObject:
  m_ObjectHideFlags: 0
  m_CorrespondingSourceObject: {fileID: 0}
  m_PrefabInstance: {fileID: 0}
  m_PrefabAsset: {fileID: 0}
  serializedVersion: 6
  m_Component:
  - component: {fileID: 7536174077937731680}
  m_Layer: 0
  m_Name: GameObject (2)
  m_TagString: Untagged
  m_Icon: {fileID: 0}
  m_NavMeshLayer: 0
  m_StaticEditorFlags: 0
  m_IsActive: 1
--- !u!4 &7536174077937731680
Transform:
  m_ObjectHideFlags: 0
  m_CorrespondingSourceObject: {fileID: 0}
  m_PrefabInstance: {fileID: 0}
  m_PrefabAsset: {fileID: 0}
  m_GameObject: {fileID: 7067873317212873151}
  m_LocalRotation: {x: -0.000000037748954, y: -1.110223e-16, z: 1.11022296e-16, w: 1}
  m_LocalPosition: {x: -0.037891388, y: 0.53, z: 0.4258}
  m_LocalScale: {x: 0.78, y: 0.78, z: 0.015599998}
  m_Children:
  - {fileID: 9194820365622702679}
  m_Father: {fileID: 7268551754738219860}
  m_RootOrder: 16
  m_LocalEulerAnglesHint: {x: 0, y: 0, z: 0}
--- !u!1001 &559814588596787714
PrefabInstance:
  m_ObjectHideFlags: 0
  serializedVersion: 2
  m_Modification:
    m_TransformParent: {fileID: 6637760800630029355}
    m_Modifications:
    - target: {fileID: 1095116597141314, guid: ce6da4e561003da4cb4a6d7ca4a9aba7, type: 3}
      propertyPath: m_Name
      value: tree_5 (1)
      objectReference: {fileID: 0}
    - target: {fileID: 4119077812053288, guid: ce6da4e561003da4cb4a6d7ca4a9aba7, type: 3}
      propertyPath: m_LocalPosition.x
      value: 2.691452
      objectReference: {fileID: 0}
    - target: {fileID: 4119077812053288, guid: ce6da4e561003da4cb4a6d7ca4a9aba7, type: 3}
      propertyPath: m_LocalPosition.y
      value: -2.6247864
      objectReference: {fileID: 0}
    - target: {fileID: 4119077812053288, guid: ce6da4e561003da4cb4a6d7ca4a9aba7, type: 3}
      propertyPath: m_LocalPosition.z
      value: -4.0178957
      objectReference: {fileID: 0}
    - target: {fileID: 4119077812053288, guid: ce6da4e561003da4cb4a6d7ca4a9aba7, type: 3}
      propertyPath: m_LocalRotation.x
      value: 0.000000018226205
      objectReference: {fileID: 0}
    - target: {fileID: 4119077812053288, guid: ce6da4e561003da4cb4a6d7ca4a9aba7, type: 3}
      propertyPath: m_LocalRotation.y
      value: 0.5518642
      objectReference: {fileID: 0}
    - target: {fileID: 4119077812053288, guid: ce6da4e561003da4cb4a6d7ca4a9aba7, type: 3}
      propertyPath: m_LocalRotation.z
      value: 0.000000012061376
      objectReference: {fileID: 0}
    - target: {fileID: 4119077812053288, guid: ce6da4e561003da4cb4a6d7ca4a9aba7, type: 3}
      propertyPath: m_LocalRotation.w
      value: 0.83393395
      objectReference: {fileID: 0}
    - target: {fileID: 4119077812053288, guid: ce6da4e561003da4cb4a6d7ca4a9aba7, type: 3}
      propertyPath: m_RootOrder
      value: 0
      objectReference: {fileID: 0}
    - target: {fileID: 4119077812053288, guid: ce6da4e561003da4cb4a6d7ca4a9aba7, type: 3}
      propertyPath: m_LocalEulerAnglesHint.x
      value: 0
      objectReference: {fileID: 0}
    - target: {fileID: 4119077812053288, guid: ce6da4e561003da4cb4a6d7ca4a9aba7, type: 3}
      propertyPath: m_LocalEulerAnglesHint.y
      value: 66.990005
      objectReference: {fileID: 0}
    - target: {fileID: 4119077812053288, guid: ce6da4e561003da4cb4a6d7ca4a9aba7, type: 3}
      propertyPath: m_LocalEulerAnglesHint.z
      value: 0
      objectReference: {fileID: 0}
    - target: {fileID: 4119077812053288, guid: ce6da4e561003da4cb4a6d7ca4a9aba7, type: 3}
      propertyPath: m_LocalScale.x
      value: 0.92
      objectReference: {fileID: 0}
    - target: {fileID: 4119077812053288, guid: ce6da4e561003da4cb4a6d7ca4a9aba7, type: 3}
      propertyPath: m_LocalScale.y
      value: 0.92
      objectReference: {fileID: 0}
    - target: {fileID: 4119077812053288, guid: ce6da4e561003da4cb4a6d7ca4a9aba7, type: 3}
      propertyPath: m_LocalScale.z
      value: 0.92
      objectReference: {fileID: 0}
    - target: {fileID: 4800140070349731037, guid: ce6da4e561003da4cb4a6d7ca4a9aba7,
        type: 3}
      propertyPath: m_Center.x
      value: -0.04
      objectReference: {fileID: 0}
    - target: {fileID: 4800140070349731037, guid: ce6da4e561003da4cb4a6d7ca4a9aba7,
        type: 3}
      propertyPath: m_Size.x
      value: 1.59
      objectReference: {fileID: 0}
    - target: {fileID: 4800140070349731037, guid: ce6da4e561003da4cb4a6d7ca4a9aba7,
        type: 3}
      propertyPath: m_Size.z
      value: 0.9
      objectReference: {fileID: 0}
    m_RemovedComponents: []
  m_SourcePrefab: {fileID: 100100000, guid: ce6da4e561003da4cb4a6d7ca4a9aba7, type: 3}
--- !u!4 &561399785717677866 stripped
Transform:
  m_CorrespondingSourceObject: {fileID: 4119077812053288, guid: ce6da4e561003da4cb4a6d7ca4a9aba7,
    type: 3}
  m_PrefabInstance: {fileID: 559814588596787714}
  m_PrefabAsset: {fileID: 0}
--- !u!1001 &640221389632386256
PrefabInstance:
  m_ObjectHideFlags: 0
  serializedVersion: 2
  m_Modification:
    m_TransformParent: {fileID: 3708432983657673310}
    m_Modifications:
    - target: {fileID: 1209775343628724, guid: ca160a9ce634ac5428075b1cf5ef480e, type: 3}
      propertyPath: m_Name
      value: tree_3 (4)
      objectReference: {fileID: 0}
    - target: {fileID: 4175952001122458, guid: ca160a9ce634ac5428075b1cf5ef480e, type: 3}
      propertyPath: m_LocalPosition.x
      value: 0
      objectReference: {fileID: 0}
    - target: {fileID: 4175952001122458, guid: ca160a9ce634ac5428075b1cf5ef480e, type: 3}
      propertyPath: m_LocalPosition.y
      value: 0
      objectReference: {fileID: 0}
    - target: {fileID: 4175952001122458, guid: ca160a9ce634ac5428075b1cf5ef480e, type: 3}
      propertyPath: m_LocalPosition.z
      value: 0
      objectReference: {fileID: 0}
    - target: {fileID: 4175952001122458, guid: ca160a9ce634ac5428075b1cf5ef480e, type: 3}
      propertyPath: m_LocalRotation.x
      value: -1.776357e-15
      objectReference: {fileID: 0}
    - target: {fileID: 4175952001122458, guid: ca160a9ce634ac5428075b1cf5ef480e, type: 3}
      propertyPath: m_LocalRotation.y
      value: 0.62468576
      objectReference: {fileID: 0}
    - target: {fileID: 4175952001122458, guid: ca160a9ce634ac5428075b1cf5ef480e, type: 3}
      propertyPath: m_LocalRotation.z
      value: -0
      objectReference: {fileID: 0}
    - target: {fileID: 4175952001122458, guid: ca160a9ce634ac5428075b1cf5ef480e, type: 3}
      propertyPath: m_LocalRotation.w
      value: 0.7808763
      objectReference: {fileID: 0}
    - target: {fileID: 4175952001122458, guid: ca160a9ce634ac5428075b1cf5ef480e, type: 3}
      propertyPath: m_RootOrder
      value: 0
      objectReference: {fileID: 0}
    - target: {fileID: 4175952001122458, guid: ca160a9ce634ac5428075b1cf5ef480e, type: 3}
      propertyPath: m_LocalEulerAnglesHint.x
      value: 0
      objectReference: {fileID: 0}
    - target: {fileID: 4175952001122458, guid: ca160a9ce634ac5428075b1cf5ef480e, type: 3}
      propertyPath: m_LocalEulerAnglesHint.y
      value: 77.318
      objectReference: {fileID: 0}
    - target: {fileID: 4175952001122458, guid: ca160a9ce634ac5428075b1cf5ef480e, type: 3}
      propertyPath: m_LocalEulerAnglesHint.z
      value: 0
      objectReference: {fileID: 0}
    - target: {fileID: 4175952001122458, guid: ca160a9ce634ac5428075b1cf5ef480e, type: 3}
      propertyPath: m_LocalScale.x
      value: 1
      objectReference: {fileID: 0}
    - target: {fileID: 4175952001122458, guid: ca160a9ce634ac5428075b1cf5ef480e, type: 3}
      propertyPath: m_LocalScale.y
      value: 1
      objectReference: {fileID: 0}
    - target: {fileID: 4175952001122458, guid: ca160a9ce634ac5428075b1cf5ef480e, type: 3}
      propertyPath: m_LocalScale.z
      value: 1
      objectReference: {fileID: 0}
    - target: {fileID: 4538673368209374423, guid: ca160a9ce634ac5428075b1cf5ef480e,
        type: 3}
      propertyPath: m_Size.x
      value: 1.69
      objectReference: {fileID: 0}
    - target: {fileID: 4538673368209374423, guid: ca160a9ce634ac5428075b1cf5ef480e,
        type: 3}
      propertyPath: m_Size.y
      value: 8.56
      objectReference: {fileID: 0}
    - target: {fileID: 4538673368209374423, guid: ca160a9ce634ac5428075b1cf5ef480e,
        type: 3}
      propertyPath: m_Size.z
      value: 0.98
      objectReference: {fileID: 0}
    m_RemovedComponents: []
  m_SourcePrefab: {fileID: 100100000, guid: ca160a9ce634ac5428075b1cf5ef480e, type: 3}
--- !u!4 &642981170031981642 stripped
Transform:
  m_CorrespondingSourceObject: {fileID: 4175952001122458, guid: ca160a9ce634ac5428075b1cf5ef480e,
    type: 3}
  m_PrefabInstance: {fileID: 640221389632386256}
  m_PrefabAsset: {fileID: 0}
--- !u!1001 &3510430744431790953
PrefabInstance:
  m_ObjectHideFlags: 0
  serializedVersion: 2
  m_Modification:
    m_TransformParent: {fileID: 7268551754738219860}
    m_Modifications:
    - target: {fileID: 7595433454435335473, guid: 272d6bcf37a61fa4084ec78dc9472bc3,
        type: 3}
      propertyPath: m_Size.x
      value: 1
      objectReference: {fileID: 0}
    - target: {fileID: 7595433454435335473, guid: 272d6bcf37a61fa4084ec78dc9472bc3,
        type: 3}
      propertyPath: m_Size.y
      value: 5
      objectReference: {fileID: 0}
    - target: {fileID: 7595433454435335484, guid: 272d6bcf37a61fa4084ec78dc9472bc3,
        type: 3}
      propertyPath: m_Name
      value: MurosRetenedores
      objectReference: {fileID: 0}
    - target: {fileID: 7595433454435335486, guid: 272d6bcf37a61fa4084ec78dc9472bc3,
        type: 3}
      propertyPath: m_Size.x
      value: 1
      objectReference: {fileID: 0}
    - target: {fileID: 7595433454435335486, guid: 272d6bcf37a61fa4084ec78dc9472bc3,
        type: 3}
      propertyPath: m_Size.y
      value: 5
      objectReference: {fileID: 0}
    - target: {fileID: 7595433454435335487, guid: 272d6bcf37a61fa4084ec78dc9472bc3,
        type: 3}
      propertyPath: m_LocalPosition.x
      value: 0
      objectReference: {fileID: 0}
    - target: {fileID: 7595433454435335487, guid: 272d6bcf37a61fa4084ec78dc9472bc3,
        type: 3}
      propertyPath: m_LocalPosition.y
      value: 3
      objectReference: {fileID: 0}
    - target: {fileID: 7595433454435335487, guid: 272d6bcf37a61fa4084ec78dc9472bc3,
        type: 3}
      propertyPath: m_LocalPosition.z
      value: 0
      objectReference: {fileID: 0}
    - target: {fileID: 7595433454435335487, guid: 272d6bcf37a61fa4084ec78dc9472bc3,
        type: 3}
      propertyPath: m_LocalRotation.x
      value: -0
      objectReference: {fileID: 0}
    - target: {fileID: 7595433454435335487, guid: 272d6bcf37a61fa4084ec78dc9472bc3,
        type: 3}
      propertyPath: m_LocalRotation.y
      value: -0
      objectReference: {fileID: 0}
    - target: {fileID: 7595433454435335487, guid: 272d6bcf37a61fa4084ec78dc9472bc3,
        type: 3}
      propertyPath: m_LocalRotation.z
      value: -0
      objectReference: {fileID: 0}
    - target: {fileID: 7595433454435335487, guid: 272d6bcf37a61fa4084ec78dc9472bc3,
        type: 3}
      propertyPath: m_LocalRotation.w
      value: 1
      objectReference: {fileID: 0}
    - target: {fileID: 7595433454435335487, guid: 272d6bcf37a61fa4084ec78dc9472bc3,
        type: 3}
      propertyPath: m_RootOrder
      value: 12
      objectReference: {fileID: 0}
    - target: {fileID: 7595433454435335487, guid: 272d6bcf37a61fa4084ec78dc9472bc3,
        type: 3}
      propertyPath: m_LocalEulerAnglesHint.x
      value: 0
      objectReference: {fileID: 0}
    - target: {fileID: 7595433454435335487, guid: 272d6bcf37a61fa4084ec78dc9472bc3,
        type: 3}
      propertyPath: m_LocalEulerAnglesHint.y
      value: 0
      objectReference: {fileID: 0}
    - target: {fileID: 7595433454435335487, guid: 272d6bcf37a61fa4084ec78dc9472bc3,
        type: 3}
      propertyPath: m_LocalEulerAnglesHint.z
      value: 0
      objectReference: {fileID: 0}
    m_RemovedComponents: []
  m_SourcePrefab: {fileID: 100100000, guid: 272d6bcf37a61fa4084ec78dc9472bc3, type: 3}
--- !u!4 &6476150244119410262 stripped
Transform:
  m_CorrespondingSourceObject: {fileID: 7595433454435335487, guid: 272d6bcf37a61fa4084ec78dc9472bc3,
    type: 3}
  m_PrefabInstance: {fileID: 3510430744431790953}
  m_PrefabAsset: {fileID: 0}
--- !u!1001 &3530932288213655698
PrefabInstance:
  m_ObjectHideFlags: 0
  serializedVersion: 2
  m_Modification:
    m_TransformParent: {fileID: 7268551754738219860}
    m_Modifications:
    - target: {fileID: 1896528449128252, guid: 5c474a6ba92e1694c88c1b7a86df7682, type: 3}
      propertyPath: m_Name
      value: grass_3 (4)
      objectReference: {fileID: 0}
    - target: {fileID: 4227529355371724, guid: 5c474a6ba92e1694c88c1b7a86df7682, type: 3}
      propertyPath: m_LocalPosition.x
      value: 0.0023239
      objectReference: {fileID: 0}
    - target: {fileID: 4227529355371724, guid: 5c474a6ba92e1694c88c1b7a86df7682, type: 3}
      propertyPath: m_LocalPosition.y
      value: 0.48
      objectReference: {fileID: 0}
    - target: {fileID: 4227529355371724, guid: 5c474a6ba92e1694c88c1b7a86df7682, type: 3}
      propertyPath: m_LocalPosition.z
      value: -0.099044
      objectReference: {fileID: 0}
    - target: {fileID: 4227529355371724, guid: 5c474a6ba92e1694c88c1b7a86df7682, type: 3}
      propertyPath: m_LocalRotation.x
      value: 0.000000021855694
      objectReference: {fileID: 0}
    - target: {fileID: 4227529355371724, guid: 5c474a6ba92e1694c88c1b7a86df7682, type: 3}
      propertyPath: m_LocalRotation.y
      value: -0
      objectReference: {fileID: 0}
    - target: {fileID: 4227529355371724, guid: 5c474a6ba92e1694c88c1b7a86df7682, type: 3}
      propertyPath: m_LocalRotation.z
      value: -0
      objectReference: {fileID: 0}
    - target: {fileID: 4227529355371724, guid: 5c474a6ba92e1694c88c1b7a86df7682, type: 3}
      propertyPath: m_LocalRotation.w
      value: 1
      objectReference: {fileID: 0}
    - target: {fileID: 4227529355371724, guid: 5c474a6ba92e1694c88c1b7a86df7682, type: 3}
      propertyPath: m_RootOrder
      value: 8
      objectReference: {fileID: 0}
    - target: {fileID: 4227529355371724, guid: 5c474a6ba92e1694c88c1b7a86df7682, type: 3}
      propertyPath: m_LocalEulerAnglesHint.x
      value: 0
      objectReference: {fileID: 0}
    - target: {fileID: 4227529355371724, guid: 5c474a6ba92e1694c88c1b7a86df7682, type: 3}
      propertyPath: m_LocalEulerAnglesHint.y
      value: 0
      objectReference: {fileID: 0}
    - target: {fileID: 4227529355371724, guid: 5c474a6ba92e1694c88c1b7a86df7682, type: 3}
      propertyPath: m_LocalEulerAnglesHint.z
      value: 0
      objectReference: {fileID: 0}
    - target: {fileID: 4227529355371724, guid: 5c474a6ba92e1694c88c1b7a86df7682, type: 3}
      propertyPath: m_LocalScale.x
      value: 0.39389327
      objectReference: {fileID: 0}
    - target: {fileID: 4227529355371724, guid: 5c474a6ba92e1694c88c1b7a86df7682, type: 3}
      propertyPath: m_LocalScale.y
      value: 0.23681653
      objectReference: {fileID: 0}
    - target: {fileID: 4227529355371724, guid: 5c474a6ba92e1694c88c1b7a86df7682, type: 3}
      propertyPath: m_LocalScale.z
      value: 0.007877865
      objectReference: {fileID: 0}
    m_RemovedComponents: []
  m_SourcePrefab: {fileID: 100100000, guid: 5c474a6ba92e1694c88c1b7a86df7682, type: 3}
--- !u!4 &3535150744433820766 stripped
Transform:
  m_CorrespondingSourceObject: {fileID: 4227529355371724, guid: 5c474a6ba92e1694c88c1b7a86df7682,
    type: 3}
  m_PrefabInstance: {fileID: 3530932288213655698}
  m_PrefabAsset: {fileID: 0}
--- !u!1001 &4212254934588474499
PrefabInstance:
  m_ObjectHideFlags: 0
  serializedVersion: 2
  m_Modification:
    m_TransformParent: {fileID: 7268551754738219860}
    m_Modifications:
    - target: {fileID: 1187748324610824, guid: da41ebe8e268ce3478edca856a24d3c1, type: 3}
      propertyPath: m_Name
      value: rock_1 (4)
      objectReference: {fileID: 0}
    - target: {fileID: 4105265054698826, guid: da41ebe8e268ce3478edca856a24d3c1, type: 3}
      propertyPath: m_LocalPosition.x
      value: 0.02
      objectReference: {fileID: 0}
    - target: {fileID: 4105265054698826, guid: da41ebe8e268ce3478edca856a24d3c1, type: 3}
      propertyPath: m_LocalPosition.y
      value: 0.53
      objectReference: {fileID: 0}
    - target: {fileID: 4105265054698826, guid: da41ebe8e268ce3478edca856a24d3c1, type: 3}
      propertyPath: m_LocalPosition.z
      value: -0.353
      objectReference: {fileID: 0}
    - target: {fileID: 4105265054698826, guid: da41ebe8e268ce3478edca856a24d3c1, type: 3}
      propertyPath: m_LocalRotation.x
      value: 0.000000021855694
      objectReference: {fileID: 0}
    - target: {fileID: 4105265054698826, guid: da41ebe8e268ce3478edca856a24d3c1, type: 3}
      propertyPath: m_LocalRotation.y
      value: -0
      objectReference: {fileID: 0}
    - target: {fileID: 4105265054698826, guid: da41ebe8e268ce3478edca856a24d3c1, type: 3}
      propertyPath: m_LocalRotation.z
      value: -0
      objectReference: {fileID: 0}
    - target: {fileID: 4105265054698826, guid: da41ebe8e268ce3478edca856a24d3c1, type: 3}
      propertyPath: m_LocalRotation.w
      value: 1
      objectReference: {fileID: 0}
    - target: {fileID: 4105265054698826, guid: da41ebe8e268ce3478edca856a24d3c1, type: 3}
      propertyPath: m_RootOrder
      value: 11
      objectReference: {fileID: 0}
    - target: {fileID: 4105265054698826, guid: da41ebe8e268ce3478edca856a24d3c1, type: 3}
      propertyPath: m_LocalEulerAnglesHint.x
      value: 0
      objectReference: {fileID: 0}
    - target: {fileID: 4105265054698826, guid: da41ebe8e268ce3478edca856a24d3c1, type: 3}
      propertyPath: m_LocalEulerAnglesHint.y
      value: 0
      objectReference: {fileID: 0}
    - target: {fileID: 4105265054698826, guid: da41ebe8e268ce3478edca856a24d3c1, type: 3}
      propertyPath: m_LocalEulerAnglesHint.z
      value: 0
      objectReference: {fileID: 0}
    - target: {fileID: 4105265054698826, guid: da41ebe8e268ce3478edca856a24d3c1, type: 3}
      propertyPath: m_LocalScale.x
      value: 0.3935
      objectReference: {fileID: 0}
    - target: {fileID: 4105265054698826, guid: da41ebe8e268ce3478edca856a24d3c1, type: 3}
      propertyPath: m_LocalScale.y
      value: 0.3935
      objectReference: {fileID: 0}
    - target: {fileID: 4105265054698826, guid: da41ebe8e268ce3478edca856a24d3c1, type: 3}
      propertyPath: m_LocalScale.z
      value: 0.00787
      objectReference: {fileID: 0}
    m_RemovedComponents: []
  m_SourcePrefab: {fileID: 100100000, guid: da41ebe8e268ce3478edca856a24d3c1, type: 3}
--- !u!4 &4213814800125462985 stripped
Transform:
  m_CorrespondingSourceObject: {fileID: 4105265054698826, guid: da41ebe8e268ce3478edca856a24d3c1,
    type: 3}
  m_PrefabInstance: {fileID: 4212254934588474499}
  m_PrefabAsset: {fileID: 0}
--- !u!1001 &4533601995728186832
PrefabInstance:
  m_ObjectHideFlags: 0
  serializedVersion: 2
  m_Modification:
    m_TransformParent: {fileID: 7268551754738219860}
    m_Modifications:
    - target: {fileID: 1328344860926746, guid: 35b342f90dd9ccb4bbc60c50fb65575e, type: 3}
      propertyPath: m_Name
      value: tree_10
      objectReference: {fileID: 0}
    - target: {fileID: 4249530846684108, guid: 35b342f90dd9ccb4bbc60c50fb65575e, type: 3}
      propertyPath: m_LocalPosition.x
      value: 0.18
      objectReference: {fileID: 0}
    - target: {fileID: 4249530846684108, guid: 35b342f90dd9ccb4bbc60c50fb65575e, type: 3}
      propertyPath: m_LocalPosition.y
      value: 0.41
      objectReference: {fileID: 0}
    - target: {fileID: 4249530846684108, guid: 35b342f90dd9ccb4bbc60c50fb65575e, type: 3}
      propertyPath: m_LocalPosition.z
      value: -0.298
      objectReference: {fileID: 0}
    - target: {fileID: 4249530846684108, guid: 35b342f90dd9ccb4bbc60c50fb65575e, type: 3}
      propertyPath: m_LocalRotation.x
      value: -0
      objectReference: {fileID: 0}
    - target: {fileID: 4249530846684108, guid: 35b342f90dd9ccb4bbc60c50fb65575e, type: 3}
      propertyPath: m_LocalRotation.y
      value: -0
      objectReference: {fileID: 0}
    - target: {fileID: 4249530846684108, guid: 35b342f90dd9ccb4bbc60c50fb65575e, type: 3}
      propertyPath: m_LocalRotation.z
      value: -0
      objectReference: {fileID: 0}
    - target: {fileID: 4249530846684108, guid: 35b342f90dd9ccb4bbc60c50fb65575e, type: 3}
      propertyPath: m_LocalRotation.w
      value: 1
      objectReference: {fileID: 0}
    - target: {fileID: 4249530846684108, guid: 35b342f90dd9ccb4bbc60c50fb65575e, type: 3}
      propertyPath: m_RootOrder
      value: 13
      objectReference: {fileID: 0}
    - target: {fileID: 4249530846684108, guid: 35b342f90dd9ccb4bbc60c50fb65575e, type: 3}
      propertyPath: m_LocalEulerAnglesHint.x
      value: 0
      objectReference: {fileID: 0}
    - target: {fileID: 4249530846684108, guid: 35b342f90dd9ccb4bbc60c50fb65575e, type: 3}
      propertyPath: m_LocalEulerAnglesHint.y
      value: 0
      objectReference: {fileID: 0}
    - target: {fileID: 4249530846684108, guid: 35b342f90dd9ccb4bbc60c50fb65575e, type: 3}
      propertyPath: m_LocalEulerAnglesHint.z
      value: 0
      objectReference: {fileID: 0}
    - target: {fileID: 4249530846684108, guid: 35b342f90dd9ccb4bbc60c50fb65575e, type: 3}
      propertyPath: m_LocalScale.z
      value: 0.014785799
      objectReference: {fileID: 0}
    - target: {fileID: 4249530846684108, guid: 35b342f90dd9ccb4bbc60c50fb65575e, type: 3}
      propertyPath: m_LocalScale.x
      value: 0.73929
      objectReference: {fileID: 0}
    - target: {fileID: 4249530846684108, guid: 35b342f90dd9ccb4bbc60c50fb65575e, type: 3}
      propertyPath: m_LocalScale.y
      value: 0.73929
      objectReference: {fileID: 0}
    m_RemovedComponents: []
  m_SourcePrefab: {fileID: 100100000, guid: 35b342f90dd9ccb4bbc60c50fb65575e, type: 3}
--- !u!4 &4532184815443987996 stripped
Transform:
  m_CorrespondingSourceObject: {fileID: 4249530846684108, guid: 35b342f90dd9ccb4bbc60c50fb65575e,
    type: 3}
  m_PrefabInstance: {fileID: 4533601995728186832}
  m_PrefabAsset: {fileID: 0}
--- !u!1001 &4660270217973356187
PrefabInstance:
  m_ObjectHideFlags: 0
  serializedVersion: 2
  m_Modification:
    m_TransformParent: {fileID: 3811603485293676453}
    m_Modifications:
    - target: {fileID: 1095116597141314, guid: ce6da4e561003da4cb4a6d7ca4a9aba7, type: 3}
      propertyPath: m_Name
      value: tree_5 (1)
      objectReference: {fileID: 0}
    - target: {fileID: 4119077812053288, guid: ce6da4e561003da4cb4a6d7ca4a9aba7, type: 3}
      propertyPath: m_LocalPosition.x
      value: 3.1486158
      objectReference: {fileID: 0}
    - target: {fileID: 4119077812053288, guid: ce6da4e561003da4cb4a6d7ca4a9aba7, type: 3}
      propertyPath: m_LocalPosition.y
      value: -2.6247864
      objectReference: {fileID: 0}
    - target: {fileID: 4119077812053288, guid: ce6da4e561003da4cb4a6d7ca4a9aba7, type: 3}
      propertyPath: m_LocalPosition.z
      value: -4.322815
      objectReference: {fileID: 0}
    - target: {fileID: 4119077812053288, guid: ce6da4e561003da4cb4a6d7ca4a9aba7, type: 3}
      propertyPath: m_LocalRotation.x
      value: 0.000000005403715
      objectReference: {fileID: 0}
    - target: {fileID: 4119077812053288, guid: ce6da4e561003da4cb4a6d7ca4a9aba7, type: 3}
      propertyPath: m_LocalRotation.y
      value: -0.96895295
      objectReference: {fileID: 0}
    - target: {fileID: 4119077812053288, guid: ce6da4e561003da4cb4a6d7ca4a9aba7, type: 3}
      propertyPath: m_LocalRotation.z
      value: -0.000000021177145
      objectReference: {fileID: 0}
    - target: {fileID: 4119077812053288, guid: ce6da4e561003da4cb4a6d7ca4a9aba7, type: 3}
      propertyPath: m_LocalRotation.w
      value: 0.24724515
      objectReference: {fileID: 0}
    - target: {fileID: 4119077812053288, guid: ce6da4e561003da4cb4a6d7ca4a9aba7, type: 3}
      propertyPath: m_RootOrder
      value: 0
      objectReference: {fileID: 0}
    - target: {fileID: 4119077812053288, guid: ce6da4e561003da4cb4a6d7ca4a9aba7, type: 3}
      propertyPath: m_LocalEulerAnglesHint.x
      value: 0
      objectReference: {fileID: 0}
    - target: {fileID: 4119077812053288, guid: ce6da4e561003da4cb4a6d7ca4a9aba7, type: 3}
      propertyPath: m_LocalEulerAnglesHint.y
      value: -151.371
      objectReference: {fileID: 0}
    - target: {fileID: 4119077812053288, guid: ce6da4e561003da4cb4a6d7ca4a9aba7, type: 3}
      propertyPath: m_LocalEulerAnglesHint.z
      value: 0
      objectReference: {fileID: 0}
    - target: {fileID: 4119077812053288, guid: ce6da4e561003da4cb4a6d7ca4a9aba7, type: 3}
      propertyPath: m_LocalScale.x
      value: 0.92
      objectReference: {fileID: 0}
    - target: {fileID: 4119077812053288, guid: ce6da4e561003da4cb4a6d7ca4a9aba7, type: 3}
      propertyPath: m_LocalScale.y
      value: 0.92
      objectReference: {fileID: 0}
    - target: {fileID: 4119077812053288, guid: ce6da4e561003da4cb4a6d7ca4a9aba7, type: 3}
      propertyPath: m_LocalScale.z
      value: 0.92
      objectReference: {fileID: 0}
    - target: {fileID: 4800140070349731037, guid: ce6da4e561003da4cb4a6d7ca4a9aba7,
        type: 3}
      propertyPath: m_Size.x
      value: 1.02
      objectReference: {fileID: 0}
    - target: {fileID: 4800140070349731037, guid: ce6da4e561003da4cb4a6d7ca4a9aba7,
        type: 3}
      propertyPath: m_Size.z
      value: 1.02
      objectReference: {fileID: 0}
    - target: {fileID: 4800140070349731037, guid: ce6da4e561003da4cb4a6d7ca4a9aba7,
        type: 3}
      propertyPath: m_Center.x
      value: -0.04
      objectReference: {fileID: 0}
    m_RemovedComponents: []
  m_SourcePrefab: {fileID: 100100000, guid: ce6da4e561003da4cb4a6d7ca4a9aba7, type: 3}
--- !u!4 &4657348006090666931 stripped
Transform:
  m_CorrespondingSourceObject: {fileID: 4119077812053288, guid: ce6da4e561003da4cb4a6d7ca4a9aba7,
    type: 3}
  m_PrefabInstance: {fileID: 4660270217973356187}
  m_PrefabAsset: {fileID: 0}
--- !u!1001 &5203747790908879609
PrefabInstance:
  m_ObjectHideFlags: 0
  serializedVersion: 2
  m_Modification:
    m_TransformParent: {fileID: 7268551754738219860}
    m_Modifications:
    - target: {fileID: 1209775343628724, guid: ca160a9ce634ac5428075b1cf5ef480e, type: 3}
      propertyPath: m_Name
      value: tree_3 (3)
      objectReference: {fileID: 0}
    - target: {fileID: 4175952001122458, guid: ca160a9ce634ac5428075b1cf5ef480e, type: 3}
      propertyPath: m_LocalPosition.x
      value: -0.037891388
      objectReference: {fileID: 0}
    - target: {fileID: 4175952001122458, guid: ca160a9ce634ac5428075b1cf5ef480e, type: 3}
      propertyPath: m_LocalPosition.y
      value: 0.53
      objectReference: {fileID: 0}
    - target: {fileID: 4175952001122458, guid: ca160a9ce634ac5428075b1cf5ef480e, type: 3}
      propertyPath: m_LocalPosition.z
      value: -0.194
      objectReference: {fileID: 0}
    - target: {fileID: 4175952001122458, guid: ca160a9ce634ac5428075b1cf5ef480e, type: 3}
      propertyPath: m_LocalRotation.x
      value: -0.000000037748954
      objectReference: {fileID: 0}
    - target: {fileID: 4175952001122458, guid: ca160a9ce634ac5428075b1cf5ef480e, type: 3}
      propertyPath: m_LocalRotation.y
      value: -1.110223e-16
      objectReference: {fileID: 0}
    - target: {fileID: 4175952001122458, guid: ca160a9ce634ac5428075b1cf5ef480e, type: 3}
      propertyPath: m_LocalRotation.z
      value: 1.11022296e-16
      objectReference: {fileID: 0}
    - target: {fileID: 4175952001122458, guid: ca160a9ce634ac5428075b1cf5ef480e, type: 3}
      propertyPath: m_LocalRotation.w
      value: 1
      objectReference: {fileID: 0}
    - target: {fileID: 4175952001122458, guid: ca160a9ce634ac5428075b1cf5ef480e, type: 3}
      propertyPath: m_RootOrder
      value: 1
      objectReference: {fileID: 0}
    - target: {fileID: 4175952001122458, guid: ca160a9ce634ac5428075b1cf5ef480e, type: 3}
      propertyPath: m_LocalEulerAnglesHint.x
      value: 0
      objectReference: {fileID: 0}
    - target: {fileID: 4175952001122458, guid: ca160a9ce634ac5428075b1cf5ef480e, type: 3}
      propertyPath: m_LocalEulerAnglesHint.y
      value: 0
      objectReference: {fileID: 0}
    - target: {fileID: 4175952001122458, guid: ca160a9ce634ac5428075b1cf5ef480e, type: 3}
      propertyPath: m_LocalEulerAnglesHint.z
      value: 0
      objectReference: {fileID: 0}
    - target: {fileID: 4175952001122458, guid: ca160a9ce634ac5428075b1cf5ef480e, type: 3}
      propertyPath: m_LocalScale.x
      value: 0.78
      objectReference: {fileID: 0}
    - target: {fileID: 4175952001122458, guid: ca160a9ce634ac5428075b1cf5ef480e, type: 3}
      propertyPath: m_LocalScale.y
      value: 0.78
      objectReference: {fileID: 0}
    - target: {fileID: 4175952001122458, guid: ca160a9ce634ac5428075b1cf5ef480e, type: 3}
      propertyPath: m_LocalScale.z
      value: 0.015599998
      objectReference: {fileID: 0}
    - target: {fileID: 4538673368209374423, guid: ca160a9ce634ac5428075b1cf5ef480e,
        type: 3}
      propertyPath: m_Size.x
      value: 1.37
      objectReference: {fileID: 0}
    - target: {fileID: 4538673368209374423, guid: ca160a9ce634ac5428075b1cf5ef480e,
        type: 3}
      propertyPath: m_Size.y
      value: 8.45
      objectReference: {fileID: 0}
    - target: {fileID: 4538673368209374423, guid: ca160a9ce634ac5428075b1cf5ef480e,
        type: 3}
      propertyPath: m_Size.z
      value: 1.61
      objectReference: {fileID: 0}
    - target: {fileID: 4538673368209374423, guid: ca160a9ce634ac5428075b1cf5ef480e,
        type: 3}
      propertyPath: m_Center.x
      value: 0.02
      objectReference: {fileID: 0}
    m_RemovedComponents: []
  m_SourcePrefab: {fileID: 100100000, guid: ca160a9ce634ac5428075b1cf5ef480e, type: 3}
--- !u!4 &5204396496135959139 stripped
Transform:
  m_CorrespondingSourceObject: {fileID: 4175952001122458, guid: ca160a9ce634ac5428075b1cf5ef480e,
    type: 3}
  m_PrefabInstance: {fileID: 5203747790908879609}
  m_PrefabAsset: {fileID: 0}
--- !u!1001 &6120736816412481466
PrefabInstance:
  m_ObjectHideFlags: 0
  serializedVersion: 2
  m_Modification:
    m_TransformParent: {fileID: 3282147312836395931}
    m_Modifications:
    - target: {fileID: 1209775343628724, guid: ca160a9ce634ac5428075b1cf5ef480e, type: 3}
      propertyPath: m_Name
      value: tree_3 (4)
      objectReference: {fileID: 0}
    - target: {fileID: 4175952001122458, guid: ca160a9ce634ac5428075b1cf5ef480e, type: 3}
      propertyPath: m_LocalPosition.x
      value: 0
      objectReference: {fileID: 0}
    - target: {fileID: 4175952001122458, guid: ca160a9ce634ac5428075b1cf5ef480e, type: 3}
      propertyPath: m_LocalPosition.y
      value: 0
      objectReference: {fileID: 0}
    - target: {fileID: 4175952001122458, guid: ca160a9ce634ac5428075b1cf5ef480e, type: 3}
      propertyPath: m_LocalPosition.z
      value: 0
      objectReference: {fileID: 0}
    - target: {fileID: 4175952001122458, guid: ca160a9ce634ac5428075b1cf5ef480e, type: 3}
      propertyPath: m_LocalRotation.x
      value: 3.5527133e-15
      objectReference: {fileID: 0}
    - target: {fileID: 4175952001122458, guid: ca160a9ce634ac5428075b1cf5ef480e, type: 3}
      propertyPath: m_LocalRotation.y
      value: 0.92607003
      objectReference: {fileID: 0}
    - target: {fileID: 4175952001122458, guid: ca160a9ce634ac5428075b1cf5ef480e, type: 3}
      propertyPath: m_LocalRotation.z
      value: -7.1054265e-15
      objectReference: {fileID: 0}
    - target: {fileID: 4175952001122458, guid: ca160a9ce634ac5428075b1cf5ef480e, type: 3}
      propertyPath: m_LocalRotation.w
      value: 0.37735155
      objectReference: {fileID: 0}
    - target: {fileID: 4175952001122458, guid: ca160a9ce634ac5428075b1cf5ef480e, type: 3}
      propertyPath: m_RootOrder
      value: 0
      objectReference: {fileID: 0}
    - target: {fileID: 4175952001122458, guid: ca160a9ce634ac5428075b1cf5ef480e, type: 3}
      propertyPath: m_LocalEulerAnglesHint.x
      value: 0
      objectReference: {fileID: 0}
    - target: {fileID: 4175952001122458, guid: ca160a9ce634ac5428075b1cf5ef480e, type: 3}
      propertyPath: m_LocalEulerAnglesHint.y
      value: 135.66101
      objectReference: {fileID: 0}
    - target: {fileID: 4175952001122458, guid: ca160a9ce634ac5428075b1cf5ef480e, type: 3}
      propertyPath: m_LocalEulerAnglesHint.z
      value: 0
      objectReference: {fileID: 0}
    - target: {fileID: 4175952001122458, guid: ca160a9ce634ac5428075b1cf5ef480e, type: 3}
      propertyPath: m_LocalScale.x
      value: 1
      objectReference: {fileID: 0}
    - target: {fileID: 4175952001122458, guid: ca160a9ce634ac5428075b1cf5ef480e, type: 3}
      propertyPath: m_LocalScale.y
      value: 1
      objectReference: {fileID: 0}
    - target: {fileID: 4175952001122458, guid: ca160a9ce634ac5428075b1cf5ef480e, type: 3}
      propertyPath: m_LocalScale.z
      value: 1
      objectReference: {fileID: 0}
    - target: {fileID: 4538673368209374423, guid: ca160a9ce634ac5428075b1cf5ef480e,
        type: 3}
      propertyPath: m_Size.x
      value: 0.92
      objectReference: {fileID: 0}
    - target: {fileID: 4538673368209374423, guid: ca160a9ce634ac5428075b1cf5ef480e,
        type: 3}
      propertyPath: m_Size.y
      value: 8.37
      objectReference: {fileID: 0}
    - target: {fileID: 4538673368209374423, guid: ca160a9ce634ac5428075b1cf5ef480e,
        type: 3}
      propertyPath: m_Center.y
      value: 4.02
      objectReference: {fileID: 0}
    - target: {fileID: 4538673368209374423, guid: ca160a9ce634ac5428075b1cf5ef480e,
        type: 3}
      propertyPath: m_Center.x
      value: 0.14
      objectReference: {fileID: 0}
    - target: {fileID: 4538673368209374423, guid: ca160a9ce634ac5428075b1cf5ef480e,
        type: 3}
      propertyPath: m_Size.z
      value: 1.08
      objectReference: {fileID: 0}
    - target: {fileID: 4538673368209374423, guid: ca160a9ce634ac5428075b1cf5ef480e,
        type: 3}
      propertyPath: m_Center.z
      value: 0.2
      objectReference: {fileID: 0}
    m_RemovedComponents: []
  m_SourcePrefab: {fileID: 100100000, guid: ca160a9ce634ac5428075b1cf5ef480e, type: 3}
--- !u!4 &6124877579155117856 stripped
Transform:
  m_CorrespondingSourceObject: {fileID: 4175952001122458, guid: ca160a9ce634ac5428075b1cf5ef480e,
    type: 3}
  m_PrefabInstance: {fileID: 6120736816412481466}
  m_PrefabAsset: {fileID: 0}
--- !u!1001 &6446760544641137726
PrefabInstance:
  m_ObjectHideFlags: 0
  serializedVersion: 2
  m_Modification:
    m_TransformParent: {fileID: 7268551754738219860}
    m_Modifications:
    - target: {fileID: 1064675501975936, guid: b00b4b56eca3251449675f6158e600cf, type: 3}
      propertyPath: m_Name
      value: bush_4 (1)
      objectReference: {fileID: 0}
    - target: {fileID: 4950998232512450, guid: b00b4b56eca3251449675f6158e600cf, type: 3}
      propertyPath: m_LocalPosition.x
      value: 0.38635826
      objectReference: {fileID: 0}
    - target: {fileID: 4950998232512450, guid: b00b4b56eca3251449675f6158e600cf, type: 3}
      propertyPath: m_LocalPosition.y
      value: 0.5
      objectReference: {fileID: 0}
    - target: {fileID: 4950998232512450, guid: b00b4b56eca3251449675f6158e600cf, type: 3}
      propertyPath: m_LocalPosition.z
      value: 0.4790948
      objectReference: {fileID: 0}
    - target: {fileID: 4950998232512450, guid: b00b4b56eca3251449675f6158e600cf, type: 3}
      propertyPath: m_LocalRotation.x
      value: 0.000000021855694
      objectReference: {fileID: 0}
    - target: {fileID: 4950998232512450, guid: b00b4b56eca3251449675f6158e600cf, type: 3}
      propertyPath: m_LocalRotation.y
      value: -0
      objectReference: {fileID: 0}
    - target: {fileID: 4950998232512450, guid: b00b4b56eca3251449675f6158e600cf, type: 3}
      propertyPath: m_LocalRotation.z
      value: -0
      objectReference: {fileID: 0}
    - target: {fileID: 4950998232512450, guid: b00b4b56eca3251449675f6158e600cf, type: 3}
      propertyPath: m_LocalRotation.w
      value: 1
      objectReference: {fileID: 0}
    - target: {fileID: 4950998232512450, guid: b00b4b56eca3251449675f6158e600cf, type: 3}
      propertyPath: m_RootOrder
      value: 5
      objectReference: {fileID: 0}
    - target: {fileID: 4950998232512450, guid: b00b4b56eca3251449675f6158e600cf, type: 3}
      propertyPath: m_LocalEulerAnglesHint.x
      value: 0
      objectReference: {fileID: 0}
    - target: {fileID: 4950998232512450, guid: b00b4b56eca3251449675f6158e600cf, type: 3}
      propertyPath: m_LocalEulerAnglesHint.y
      value: 0
      objectReference: {fileID: 0}
    - target: {fileID: 4950998232512450, guid: b00b4b56eca3251449675f6158e600cf, type: 3}
      propertyPath: m_LocalEulerAnglesHint.z
      value: 0
      objectReference: {fileID: 0}
    - target: {fileID: 4950998232512450, guid: b00b4b56eca3251449675f6158e600cf, type: 3}
      propertyPath: m_LocalScale.x
      value: 0.69936
      objectReference: {fileID: 0}
    - target: {fileID: 4950998232512450, guid: b00b4b56eca3251449675f6158e600cf, type: 3}
      propertyPath: m_LocalScale.y
      value: 0.69936
      objectReference: {fileID: 0}
    - target: {fileID: 4950998232512450, guid: b00b4b56eca3251449675f6158e600cf, type: 3}
      propertyPath: m_LocalScale.z
      value: 0.0139872
      objectReference: {fileID: 0}
    m_RemovedComponents: []
  m_SourcePrefab: {fileID: 100100000, guid: b00b4b56eca3251449675f6158e600cf, type: 3}
--- !u!4 &6442091846309514236 stripped
Transform:
  m_CorrespondingSourceObject: {fileID: 4950998232512450, guid: b00b4b56eca3251449675f6158e600cf,
    type: 3}
  m_PrefabInstance: {fileID: 6446760544641137726}
  m_PrefabAsset: {fileID: 0}
--- !u!1001 &6892168814793426203
PrefabInstance:
  m_ObjectHideFlags: 0
  serializedVersion: 2
  m_Modification:
    m_TransformParent: {fileID: 7268551754738219860}
    m_Modifications:
    - target: {fileID: 1896528449128252, guid: 5c474a6ba92e1694c88c1b7a86df7682, type: 3}
      propertyPath: m_Name
      value: grass_3 (5)
      objectReference: {fileID: 0}
    - target: {fileID: 4227529355371724, guid: 5c474a6ba92e1694c88c1b7a86df7682, type: 3}
      propertyPath: m_LocalPosition.x
      value: -0.08
      objectReference: {fileID: 0}
    - target: {fileID: 4227529355371724, guid: 5c474a6ba92e1694c88c1b7a86df7682, type: 3}
      propertyPath: m_LocalPosition.y
      value: 0.5
      objectReference: {fileID: 0}
    - target: {fileID: 4227529355371724, guid: 5c474a6ba92e1694c88c1b7a86df7682, type: 3}
      propertyPath: m_LocalPosition.z
      value: 0.304
      objectReference: {fileID: 0}
    - target: {fileID: 4227529355371724, guid: 5c474a6ba92e1694c88c1b7a86df7682, type: 3}
      propertyPath: m_LocalRotation.x
      value: 0.000000021855694
      objectReference: {fileID: 0}
    - target: {fileID: 4227529355371724, guid: 5c474a6ba92e1694c88c1b7a86df7682, type: 3}
      propertyPath: m_LocalRotation.y
      value: -0
      objectReference: {fileID: 0}
    - target: {fileID: 4227529355371724, guid: 5c474a6ba92e1694c88c1b7a86df7682, type: 3}
      propertyPath: m_LocalRotation.z
      value: -0
      objectReference: {fileID: 0}
    - target: {fileID: 4227529355371724, guid: 5c474a6ba92e1694c88c1b7a86df7682, type: 3}
      propertyPath: m_LocalRotation.w
      value: 1
      objectReference: {fileID: 0}
    - target: {fileID: 4227529355371724, guid: 5c474a6ba92e1694c88c1b7a86df7682, type: 3}
      propertyPath: m_RootOrder
      value: 9
      objectReference: {fileID: 0}
    - target: {fileID: 4227529355371724, guid: 5c474a6ba92e1694c88c1b7a86df7682, type: 3}
      propertyPath: m_LocalEulerAnglesHint.x
      value: 0
      objectReference: {fileID: 0}
    - target: {fileID: 4227529355371724, guid: 5c474a6ba92e1694c88c1b7a86df7682, type: 3}
      propertyPath: m_LocalEulerAnglesHint.y
      value: 0
      objectReference: {fileID: 0}
    - target: {fileID: 4227529355371724, guid: 5c474a6ba92e1694c88c1b7a86df7682, type: 3}
      propertyPath: m_LocalEulerAnglesHint.z
      value: 0
      objectReference: {fileID: 0}
    - target: {fileID: 4227529355371724, guid: 5c474a6ba92e1694c88c1b7a86df7682, type: 3}
      propertyPath: m_LocalScale.x
      value: 0.56422
      objectReference: {fileID: 0}
    - target: {fileID: 4227529355371724, guid: 5c474a6ba92e1694c88c1b7a86df7682, type: 3}
      propertyPath: m_LocalScale.y
      value: 0.56422
      objectReference: {fileID: 0}
    - target: {fileID: 4227529355371724, guid: 5c474a6ba92e1694c88c1b7a86df7682, type: 3}
      propertyPath: m_LocalScale.z
      value: 0.0112844
      objectReference: {fileID: 0}
    m_RemovedComponents: []
  m_SourcePrefab: {fileID: 100100000, guid: 5c474a6ba92e1694c88c1b7a86df7682, type: 3}
--- !u!4 &6893572796090720727 stripped
Transform:
  m_CorrespondingSourceObject: {fileID: 4227529355371724, guid: 5c474a6ba92e1694c88c1b7a86df7682,
    type: 3}
  m_PrefabInstance: {fileID: 6892168814793426203}
  m_PrefabAsset: {fileID: 0}
--- !u!1001 &7151336407170681872
PrefabInstance:
  m_ObjectHideFlags: 0
  serializedVersion: 2
  m_Modification:
    m_TransformParent: {fileID: 7268551754738219860}
    m_Modifications:
    - target: {fileID: 1055722239771124, guid: 93bb5d92b165c2442886147b667819ad, type: 3}
      propertyPath: m_Name
      value: tree_1 (4)
      objectReference: {fileID: 0}
    - target: {fileID: 4086046502371302, guid: 93bb5d92b165c2442886147b667819ad, type: 3}
      propertyPath: m_LocalPosition.x
      value: 0.06392956
      objectReference: {fileID: 0}
    - target: {fileID: 4086046502371302, guid: 93bb5d92b165c2442886147b667819ad, type: 3}
      propertyPath: m_LocalPosition.y
      value: 0.5
      objectReference: {fileID: 0}
    - target: {fileID: 4086046502371302, guid: 93bb5d92b165c2442886147b667819ad, type: 3}
      propertyPath: m_LocalPosition.z
      value: 0.167
      objectReference: {fileID: 0}
    - target: {fileID: 4086046502371302, guid: 93bb5d92b165c2442886147b667819ad, type: 3}
      propertyPath: m_LocalRotation.x
      value: -0
      objectReference: {fileID: 0}
    - target: {fileID: 4086046502371302, guid: 93bb5d92b165c2442886147b667819ad, type: 3}
      propertyPath: m_LocalRotation.y
      value: -0
      objectReference: {fileID: 0}
    - target: {fileID: 4086046502371302, guid: 93bb5d92b165c2442886147b667819ad, type: 3}
      propertyPath: m_LocalRotation.z
      value: -0
      objectReference: {fileID: 0}
    - target: {fileID: 4086046502371302, guid: 93bb5d92b165c2442886147b667819ad, type: 3}
      propertyPath: m_LocalRotation.w
      value: 1
      objectReference: {fileID: 0}
    - target: {fileID: 4086046502371302, guid: 93bb5d92b165c2442886147b667819ad, type: 3}
      propertyPath: m_RootOrder
      value: 0
      objectReference: {fileID: 0}
    - target: {fileID: 4086046502371302, guid: 93bb5d92b165c2442886147b667819ad, type: 3}
      propertyPath: m_LocalEulerAnglesHint.x
      value: 0
      objectReference: {fileID: 0}
    - target: {fileID: 4086046502371302, guid: 93bb5d92b165c2442886147b667819ad, type: 3}
      propertyPath: m_LocalEulerAnglesHint.y
      value: 0
      objectReference: {fileID: 0}
    - target: {fileID: 4086046502371302, guid: 93bb5d92b165c2442886147b667819ad, type: 3}
      propertyPath: m_LocalEulerAnglesHint.z
      value: 0
      objectReference: {fileID: 0}
    - target: {fileID: 4086046502371302, guid: 93bb5d92b165c2442886147b667819ad, type: 3}
      propertyPath: m_LocalScale.x
      value: 0.93
      objectReference: {fileID: 0}
    - target: {fileID: 4086046502371302, guid: 93bb5d92b165c2442886147b667819ad, type: 3}
      propertyPath: m_LocalScale.y
      value: 0.93
      objectReference: {fileID: 0}
    - target: {fileID: 4086046502371302, guid: 93bb5d92b165c2442886147b667819ad, type: 3}
      propertyPath: m_LocalScale.z
      value: 0.0186
      objectReference: {fileID: 0}
    - target: {fileID: 6552463216215390653, guid: 93bb5d92b165c2442886147b667819ad,
        type: 3}
      propertyPath: m_Size.x
      value: 0.91
      objectReference: {fileID: 0}
    m_RemovedComponents: []
  m_SourcePrefab: {fileID: 100100000, guid: 93bb5d92b165c2442886147b667819ad, type: 3}
--- !u!4 &7147250741453075446 stripped
Transform:
  m_CorrespondingSourceObject: {fileID: 4086046502371302, guid: 93bb5d92b165c2442886147b667819ad,
    type: 3}
  m_PrefabInstance: {fileID: 7151336407170681872}
  m_PrefabAsset: {fileID: 0}
--- !u!1001 &7195172048658347010
PrefabInstance:
  m_ObjectHideFlags: 0
  serializedVersion: 2
  m_Modification:
    m_TransformParent: {fileID: 7268551754738219860}
    m_Modifications:
    - target: {fileID: 1187748324610824, guid: da41ebe8e268ce3478edca856a24d3c1, type: 3}
      propertyPath: m_Name
      value: rock_1 (3)
      objectReference: {fileID: 0}
    - target: {fileID: 4105265054698826, guid: da41ebe8e268ce3478edca856a24d3c1, type: 3}
      propertyPath: m_LocalPosition.x
      value: 0.03
      objectReference: {fileID: 0}
    - target: {fileID: 4105265054698826, guid: da41ebe8e268ce3478edca856a24d3c1, type: 3}
      propertyPath: m_LocalPosition.y
      value: 0.5
      objectReference: {fileID: 0}
    - target: {fileID: 4105265054698826, guid: da41ebe8e268ce3478edca856a24d3c1, type: 3}
      propertyPath: m_LocalPosition.z
      value: 0.3253
      objectReference: {fileID: 0}
    - target: {fileID: 4105265054698826, guid: da41ebe8e268ce3478edca856a24d3c1, type: 3}
      propertyPath: m_LocalRotation.x
      value: 0.000000021855694
      objectReference: {fileID: 0}
    - target: {fileID: 4105265054698826, guid: da41ebe8e268ce3478edca856a24d3c1, type: 3}
      propertyPath: m_LocalRotation.y
      value: -0
      objectReference: {fileID: 0}
    - target: {fileID: 4105265054698826, guid: da41ebe8e268ce3478edca856a24d3c1, type: 3}
      propertyPath: m_LocalRotation.z
      value: -0
      objectReference: {fileID: 0}
    - target: {fileID: 4105265054698826, guid: da41ebe8e268ce3478edca856a24d3c1, type: 3}
      propertyPath: m_LocalRotation.w
      value: 1
      objectReference: {fileID: 0}
    - target: {fileID: 4105265054698826, guid: da41ebe8e268ce3478edca856a24d3c1, type: 3}
      propertyPath: m_RootOrder
      value: 10
      objectReference: {fileID: 0}
    - target: {fileID: 4105265054698826, guid: da41ebe8e268ce3478edca856a24d3c1, type: 3}
      propertyPath: m_LocalEulerAnglesHint.x
      value: 0
      objectReference: {fileID: 0}
    - target: {fileID: 4105265054698826, guid: da41ebe8e268ce3478edca856a24d3c1, type: 3}
      propertyPath: m_LocalEulerAnglesHint.y
      value: 0
      objectReference: {fileID: 0}
    - target: {fileID: 4105265054698826, guid: da41ebe8e268ce3478edca856a24d3c1, type: 3}
      propertyPath: m_LocalEulerAnglesHint.z
      value: 0
      objectReference: {fileID: 0}
    - target: {fileID: 4105265054698826, guid: da41ebe8e268ce3478edca856a24d3c1, type: 3}
      propertyPath: m_LocalScale.x
      value: 0.3935
      objectReference: {fileID: 0}
    - target: {fileID: 4105265054698826, guid: da41ebe8e268ce3478edca856a24d3c1, type: 3}
      propertyPath: m_LocalScale.y
      value: 0.3935
      objectReference: {fileID: 0}
    - target: {fileID: 4105265054698826, guid: da41ebe8e268ce3478edca856a24d3c1, type: 3}
      propertyPath: m_LocalScale.z
      value: 0.00787
      objectReference: {fileID: 0}
    m_RemovedComponents: []
  m_SourcePrefab: {fileID: 100100000, guid: da41ebe8e268ce3478edca856a24d3c1, type: 3}
--- !u!4 &7193646551457265992 stripped
Transform:
  m_CorrespondingSourceObject: {fileID: 4105265054698826, guid: da41ebe8e268ce3478edca856a24d3c1,
    type: 3}
  m_PrefabInstance: {fileID: 7195172048658347010}
  m_PrefabAsset: {fileID: 0}
--- !u!1001 &7236427593182417777
PrefabInstance:
  m_ObjectHideFlags: 0
  serializedVersion: 2
  m_Modification:
    m_TransformParent: {fileID: 7268551754738219860}
    m_Modifications:
    - target: {fileID: 1877876609639262, guid: 7b08fe66855e56c4991a3055447b7355, type: 3}
      propertyPath: m_Name
      value: flower_3 (3)
      objectReference: {fileID: 0}
    - target: {fileID: 4333229364648180, guid: 7b08fe66855e56c4991a3055447b7355, type: 3}
      propertyPath: m_LocalPosition.x
      value: 0
      objectReference: {fileID: 0}
    - target: {fileID: 4333229364648180, guid: 7b08fe66855e56c4991a3055447b7355, type: 3}
      propertyPath: m_LocalPosition.y
      value: 0.5
      objectReference: {fileID: 0}
    - target: {fileID: 4333229364648180, guid: 7b08fe66855e56c4991a3055447b7355, type: 3}
      propertyPath: m_LocalPosition.z
      value: -0.392
      objectReference: {fileID: 0}
    - target: {fileID: 4333229364648180, guid: 7b08fe66855e56c4991a3055447b7355, type: 3}
      propertyPath: m_LocalRotation.x
      value: 0.000000021855694
      objectReference: {fileID: 0}
    - target: {fileID: 4333229364648180, guid: 7b08fe66855e56c4991a3055447b7355, type: 3}
      propertyPath: m_LocalRotation.y
      value: -0
      objectReference: {fileID: 0}
    - target: {fileID: 4333229364648180, guid: 7b08fe66855e56c4991a3055447b7355, type: 3}
      propertyPath: m_LocalRotation.z
      value: -0
      objectReference: {fileID: 0}
    - target: {fileID: 4333229364648180, guid: 7b08fe66855e56c4991a3055447b7355, type: 3}
      propertyPath: m_LocalRotation.w
      value: 1
      objectReference: {fileID: 0}
    - target: {fileID: 4333229364648180, guid: 7b08fe66855e56c4991a3055447b7355, type: 3}
      propertyPath: m_RootOrder
      value: 7
      objectReference: {fileID: 0}
    - target: {fileID: 4333229364648180, guid: 7b08fe66855e56c4991a3055447b7355, type: 3}
      propertyPath: m_LocalEulerAnglesHint.x
      value: 0
      objectReference: {fileID: 0}
    - target: {fileID: 4333229364648180, guid: 7b08fe66855e56c4991a3055447b7355, type: 3}
      propertyPath: m_LocalEulerAnglesHint.y
      value: 0
      objectReference: {fileID: 0}
    - target: {fileID: 4333229364648180, guid: 7b08fe66855e56c4991a3055447b7355, type: 3}
      propertyPath: m_LocalEulerAnglesHint.z
      value: 0
      objectReference: {fileID: 0}
    - target: {fileID: 4333229364648180, guid: 7b08fe66855e56c4991a3055447b7355, type: 3}
      propertyPath: m_LocalScale.x
      value: 0.55366
      objectReference: {fileID: 0}
    - target: {fileID: 4333229364648180, guid: 7b08fe66855e56c4991a3055447b7355, type: 3}
      propertyPath: m_LocalScale.y
      value: 0.55366
      objectReference: {fileID: 0}
    - target: {fileID: 4333229364648180, guid: 7b08fe66855e56c4991a3055447b7355, type: 3}
      propertyPath: m_LocalScale.z
      value: 0.011073199
      objectReference: {fileID: 0}
    m_RemovedComponents: []
  m_SourcePrefab: {fileID: 100100000, guid: 7b08fe66855e56c4991a3055447b7355, type: 3}
--- !u!4 &7233785417567013765 stripped
Transform:
  m_CorrespondingSourceObject: {fileID: 4333229364648180, guid: 7b08fe66855e56c4991a3055447b7355,
    type: 3}
  m_PrefabInstance: {fileID: 7236427593182417777}
  m_PrefabAsset: {fileID: 0}
--- !u!1001 &7622242591817231929
PrefabInstance:
  m_ObjectHideFlags: 0
  serializedVersion: 2
  m_Modification:
    m_TransformParent: {fileID: 7268551754738219860}
    m_Modifications:
    - target: {fileID: 1838972126915286, guid: 51276cc88102cf44781a6249ac17e3b7, type: 3}
      propertyPath: m_Name
      value: flower_4 (1)
      objectReference: {fileID: 0}
    - target: {fileID: 4734231112348080, guid: 51276cc88102cf44781a6249ac17e3b7, type: 3}
      propertyPath: m_LocalPosition.x
      value: -0.02
      objectReference: {fileID: 0}
    - target: {fileID: 4734231112348080, guid: 51276cc88102cf44781a6249ac17e3b7, type: 3}
      propertyPath: m_LocalPosition.y
      value: 0.5
      objectReference: {fileID: 0}
    - target: {fileID: 4734231112348080, guid: 51276cc88102cf44781a6249ac17e3b7, type: 3}
      propertyPath: m_LocalPosition.z
      value: 0.0673
      objectReference: {fileID: 0}
    - target: {fileID: 4734231112348080, guid: 51276cc88102cf44781a6249ac17e3b7, type: 3}
      propertyPath: m_LocalRotation.x
      value: 0.000000021855694
      objectReference: {fileID: 0}
    - target: {fileID: 4734231112348080, guid: 51276cc88102cf44781a6249ac17e3b7, type: 3}
      propertyPath: m_LocalRotation.y
      value: -0
      objectReference: {fileID: 0}
    - target: {fileID: 4734231112348080, guid: 51276cc88102cf44781a6249ac17e3b7, type: 3}
      propertyPath: m_LocalRotation.z
      value: -0
      objectReference: {fileID: 0}
    - target: {fileID: 4734231112348080, guid: 51276cc88102cf44781a6249ac17e3b7, type: 3}
      propertyPath: m_LocalRotation.w
      value: 1
      objectReference: {fileID: 0}
    - target: {fileID: 4734231112348080, guid: 51276cc88102cf44781a6249ac17e3b7, type: 3}
      propertyPath: m_RootOrder
      value: 3
      objectReference: {fileID: 0}
    - target: {fileID: 4734231112348080, guid: 51276cc88102cf44781a6249ac17e3b7, type: 3}
      propertyPath: m_LocalEulerAnglesHint.x
      value: 0
      objectReference: {fileID: 0}
    - target: {fileID: 4734231112348080, guid: 51276cc88102cf44781a6249ac17e3b7, type: 3}
      propertyPath: m_LocalEulerAnglesHint.y
      value: 0
      objectReference: {fileID: 0}
    - target: {fileID: 4734231112348080, guid: 51276cc88102cf44781a6249ac17e3b7, type: 3}
      propertyPath: m_LocalEulerAnglesHint.z
      value: 0
      objectReference: {fileID: 0}
    - target: {fileID: 4734231112348080, guid: 51276cc88102cf44781a6249ac17e3b7, type: 3}
      propertyPath: m_LocalScale.x
      value: 0.70838
      objectReference: {fileID: 0}
    - target: {fileID: 4734231112348080, guid: 51276cc88102cf44781a6249ac17e3b7, type: 3}
      propertyPath: m_LocalScale.y
      value: 0.70838
      objectReference: {fileID: 0}
    - target: {fileID: 4734231112348080, guid: 51276cc88102cf44781a6249ac17e3b7, type: 3}
      propertyPath: m_LocalScale.z
      value: 0.014167599
      objectReference: {fileID: 0}
    m_RemovedComponents: []
  m_SourcePrefab: {fileID: 100100000, guid: 51276cc88102cf44781a6249ac17e3b7, type: 3}
--- !u!4 &7626692598599655305 stripped
Transform:
  m_CorrespondingSourceObject: {fileID: 4734231112348080, guid: 51276cc88102cf44781a6249ac17e3b7,
    type: 3}
  m_PrefabInstance: {fileID: 7622242591817231929}
  m_PrefabAsset: {fileID: 0}
--- !u!1001 &8385417944569368262
PrefabInstance:
  m_ObjectHideFlags: 0
  serializedVersion: 2
  m_Modification:
    m_TransformParent: {fileID: 7268551754738219860}
    m_Modifications:
    - target: {fileID: 4893022227556088607, guid: 80cb3cbc42296494a8f11b724af263d9,
        type: 3}
      propertyPath: m_LocalPosition.x
      value: 0
      objectReference: {fileID: 0}
    - target: {fileID: 4893022227556088607, guid: 80cb3cbc42296494a8f11b724af263d9,
        type: 3}
      propertyPath: m_LocalPosition.y
      value: 1
      objectReference: {fileID: 0}
    - target: {fileID: 4893022227556088607, guid: 80cb3cbc42296494a8f11b724af263d9,
        type: 3}
      propertyPath: m_LocalPosition.z
      value: -0.139
      objectReference: {fileID: 0}
    - target: {fileID: 4893022227556088607, guid: 80cb3cbc42296494a8f11b724af263d9,
        type: 3}
      propertyPath: m_LocalRotation.x
      value: 0
      objectReference: {fileID: 0}
    - target: {fileID: 4893022227556088607, guid: 80cb3cbc42296494a8f11b724af263d9,
        type: 3}
      propertyPath: m_LocalRotation.y
      value: 0
      objectReference: {fileID: 0}
    - target: {fileID: 4893022227556088607, guid: 80cb3cbc42296494a8f11b724af263d9,
        type: 3}
      propertyPath: m_LocalRotation.z
      value: 0
      objectReference: {fileID: 0}
    - target: {fileID: 4893022227556088607, guid: 80cb3cbc42296494a8f11b724af263d9,
        type: 3}
      propertyPath: m_LocalRotation.w
      value: 1
      objectReference: {fileID: 0}
    - target: {fileID: 4893022227556088607, guid: 80cb3cbc42296494a8f11b724af263d9,
        type: 3}
      propertyPath: m_RootOrder
      value: 19
      objectReference: {fileID: 0}
    - target: {fileID: 4893022227556088607, guid: 80cb3cbc42296494a8f11b724af263d9,
        type: 3}
      propertyPath: m_LocalEulerAnglesHint.x
      value: 0
      objectReference: {fileID: 0}
    - target: {fileID: 4893022227556088607, guid: 80cb3cbc42296494a8f11b724af263d9,
        type: 3}
      propertyPath: m_LocalEulerAnglesHint.y
      value: 0
      objectReference: {fileID: 0}
    - target: {fileID: 4893022227556088607, guid: 80cb3cbc42296494a8f11b724af263d9,
        type: 3}
      propertyPath: m_LocalEulerAnglesHint.z
      value: 0
      objectReference: {fileID: 0}
    - target: {fileID: 7469859931458404246, guid: 80cb3cbc42296494a8f11b724af263d9,
        type: 3}
      propertyPath: m_Name
      value: VidaSpawner
      objectReference: {fileID: 0}
    m_RemovedComponents:
    - {fileID: 1314430504012507786, guid: 80cb3cbc42296494a8f11b724af263d9, type: 3}
  m_SourcePrefab: {fileID: 100100000, guid: 80cb3cbc42296494a8f11b724af263d9, type: 3}
--- !u!4 &4015377964293977561 stripped
Transform:
  m_CorrespondingSourceObject: {fileID: 4893022227556088607, guid: 80cb3cbc42296494a8f11b724af263d9,
    type: 3}
  m_PrefabInstance: {fileID: 8385417944569368262}
  m_PrefabAsset: {fileID: 0}
--- !u!1001 &8743557369331088056
PrefabInstance:
  m_ObjectHideFlags: 0
  serializedVersion: 2
  m_Modification:
    m_TransformParent: {fileID: 7268551754738219860}
    m_Modifications:
    - target: {fileID: 1896528449128252, guid: 5c474a6ba92e1694c88c1b7a86df7682, type: 3}
      propertyPath: m_Name
      value: grass_3 (3)
      objectReference: {fileID: 0}
    - target: {fileID: 4227529355371724, guid: 5c474a6ba92e1694c88c1b7a86df7682, type: 3}
      propertyPath: m_LocalPosition.x
      value: -0.01
      objectReference: {fileID: 0}
    - target: {fileID: 4227529355371724, guid: 5c474a6ba92e1694c88c1b7a86df7682, type: 3}
      propertyPath: m_LocalPosition.y
      value: 0.5
      objectReference: {fileID: 0}
    - target: {fileID: 4227529355371724, guid: 5c474a6ba92e1694c88c1b7a86df7682, type: 3}
      propertyPath: m_LocalPosition.z
      value: 0.1473
      objectReference: {fileID: 0}
    - target: {fileID: 4227529355371724, guid: 5c474a6ba92e1694c88c1b7a86df7682, type: 3}
      propertyPath: m_LocalRotation.x
      value: 0.000000021855694
      objectReference: {fileID: 0}
    - target: {fileID: 4227529355371724, guid: 5c474a6ba92e1694c88c1b7a86df7682, type: 3}
      propertyPath: m_LocalRotation.y
      value: -0
      objectReference: {fileID: 0}
    - target: {fileID: 4227529355371724, guid: 5c474a6ba92e1694c88c1b7a86df7682, type: 3}
      propertyPath: m_LocalRotation.z
      value: -0
      objectReference: {fileID: 0}
    - target: {fileID: 4227529355371724, guid: 5c474a6ba92e1694c88c1b7a86df7682, type: 3}
      propertyPath: m_LocalRotation.w
      value: 1
      objectReference: {fileID: 0}
    - target: {fileID: 4227529355371724, guid: 5c474a6ba92e1694c88c1b7a86df7682, type: 3}
      propertyPath: m_RootOrder
      value: 2
      objectReference: {fileID: 0}
    - target: {fileID: 4227529355371724, guid: 5c474a6ba92e1694c88c1b7a86df7682, type: 3}
      propertyPath: m_LocalEulerAnglesHint.x
      value: 0
      objectReference: {fileID: 0}
    - target: {fileID: 4227529355371724, guid: 5c474a6ba92e1694c88c1b7a86df7682, type: 3}
      propertyPath: m_LocalEulerAnglesHint.y
      value: 0
      objectReference: {fileID: 0}
    - target: {fileID: 4227529355371724, guid: 5c474a6ba92e1694c88c1b7a86df7682, type: 3}
      propertyPath: m_LocalEulerAnglesHint.z
      value: 0
      objectReference: {fileID: 0}
    - target: {fileID: 4227529355371724, guid: 5c474a6ba92e1694c88c1b7a86df7682, type: 3}
      propertyPath: m_LocalScale.x
      value: 0.56422
      objectReference: {fileID: 0}
    - target: {fileID: 4227529355371724, guid: 5c474a6ba92e1694c88c1b7a86df7682, type: 3}
      propertyPath: m_LocalScale.y
      value: 0.56422
      objectReference: {fileID: 0}
    - target: {fileID: 4227529355371724, guid: 5c474a6ba92e1694c88c1b7a86df7682, type: 3}
      propertyPath: m_LocalScale.z
      value: 0.0112844
      objectReference: {fileID: 0}
    m_RemovedComponents: []
  m_SourcePrefab: {fileID: 100100000, guid: 5c474a6ba92e1694c88c1b7a86df7682, type: 3}
--- !u!4 &8743844162039406196 stripped
Transform:
  m_CorrespondingSourceObject: {fileID: 4227529355371724, guid: 5c474a6ba92e1694c88c1b7a86df7682,
    type: 3}
  m_PrefabInstance: {fileID: 8743557369331088056}
  m_PrefabAsset: {fileID: 0}
--- !u!1001 &8791486042819359174
PrefabInstance:
  m_ObjectHideFlags: 0
  serializedVersion: 2
  m_Modification:
    m_TransformParent: {fileID: 7268551754738219860}
    m_Modifications:
    - target: {fileID: 1064191063396284, guid: 58d18c950edc184449d1b850f5563780, type: 3}
      propertyPath: m_Name
      value: bush_2 (1)
      objectReference: {fileID: 0}
    - target: {fileID: 4022700262380242, guid: 58d18c950edc184449d1b850f5563780, type: 3}
      propertyPath: m_LocalPosition.x
      value: -0.23
      objectReference: {fileID: 0}
    - target: {fileID: 4022700262380242, guid: 58d18c950edc184449d1b850f5563780, type: 3}
      propertyPath: m_LocalPosition.y
      value: 0.5
      objectReference: {fileID: 0}
    - target: {fileID: 4022700262380242, guid: 58d18c950edc184449d1b850f5563780, type: 3}
      propertyPath: m_LocalPosition.z
      value: -0.2434
      objectReference: {fileID: 0}
    - target: {fileID: 4022700262380242, guid: 58d18c950edc184449d1b850f5563780, type: 3}
      propertyPath: m_LocalRotation.x
      value: 0.000000021855694
      objectReference: {fileID: 0}
    - target: {fileID: 4022700262380242, guid: 58d18c950edc184449d1b850f5563780, type: 3}
      propertyPath: m_LocalRotation.y
      value: -0
      objectReference: {fileID: 0}
    - target: {fileID: 4022700262380242, guid: 58d18c950edc184449d1b850f5563780, type: 3}
      propertyPath: m_LocalRotation.z
      value: -0
      objectReference: {fileID: 0}
    - target: {fileID: 4022700262380242, guid: 58d18c950edc184449d1b850f5563780, type: 3}
      propertyPath: m_LocalRotation.w
      value: 1
      objectReference: {fileID: 0}
    - target: {fileID: 4022700262380242, guid: 58d18c950edc184449d1b850f5563780, type: 3}
      propertyPath: m_RootOrder
      value: 6
      objectReference: {fileID: 0}
    - target: {fileID: 4022700262380242, guid: 58d18c950edc184449d1b850f5563780, type: 3}
      propertyPath: m_LocalEulerAnglesHint.x
      value: 0
      objectReference: {fileID: 0}
    - target: {fileID: 4022700262380242, guid: 58d18c950edc184449d1b850f5563780, type: 3}
      propertyPath: m_LocalEulerAnglesHint.y
      value: 0
      objectReference: {fileID: 0}
    - target: {fileID: 4022700262380242, guid: 58d18c950edc184449d1b850f5563780, type: 3}
      propertyPath: m_LocalEulerAnglesHint.z
      value: 0
      objectReference: {fileID: 0}
    - target: {fileID: 4022700262380242, guid: 58d18c950edc184449d1b850f5563780, type: 3}
      propertyPath: m_LocalScale.x
      value: 0.62
      objectReference: {fileID: 0}
    - target: {fileID: 4022700262380242, guid: 58d18c950edc184449d1b850f5563780, type: 3}
      propertyPath: m_LocalScale.y
      value: 0.62
      objectReference: {fileID: 0}
    - target: {fileID: 4022700262380242, guid: 58d18c950edc184449d1b850f5563780, type: 3}
      propertyPath: m_LocalScale.z
      value: 0.0123999985
      objectReference: {fileID: 0}
    m_RemovedComponents: []
  m_SourcePrefab: {fileID: 100100000, guid: 58d18c950edc184449d1b850f5563780, type: 3}
--- !u!4 &8795507420095849236 stripped
Transform:
  m_CorrespondingSourceObject: {fileID: 4022700262380242, guid: 58d18c950edc184449d1b850f5563780,
    type: 3}
  m_PrefabInstance: {fileID: 8791486042819359174}
  m_PrefabAsset: {fileID: 0}
--- !u!1001 &9138504080317888467
PrefabInstance:
  m_ObjectHideFlags: 0
  serializedVersion: 2
  m_Modification:
    m_TransformParent: {fileID: 7268551754738219860}
    m_Modifications:
    - target: {fileID: 1877876609639262, guid: 7b08fe66855e56c4991a3055447b7355, type: 3}
      propertyPath: m_Name
      value: flower_3 (2)
      objectReference: {fileID: 0}
    - target: {fileID: 4333229364648180, guid: 7b08fe66855e56c4991a3055447b7355, type: 3}
      propertyPath: m_LocalPosition.x
      value: -0.11
      objectReference: {fileID: 0}
    - target: {fileID: 4333229364648180, guid: 7b08fe66855e56c4991a3055447b7355, type: 3}
      propertyPath: m_LocalPosition.y
      value: 0.5016954
      objectReference: {fileID: 0}
    - target: {fileID: 4333229364648180, guid: 7b08fe66855e56c4991a3055447b7355, type: 3}
      propertyPath: m_LocalPosition.z
      value: -0.0812
      objectReference: {fileID: 0}
    - target: {fileID: 4333229364648180, guid: 7b08fe66855e56c4991a3055447b7355, type: 3}
      propertyPath: m_LocalRotation.x
      value: 0.000000021855694
      objectReference: {fileID: 0}
    - target: {fileID: 4333229364648180, guid: 7b08fe66855e56c4991a3055447b7355, type: 3}
      propertyPath: m_LocalRotation.y
      value: -0
      objectReference: {fileID: 0}
    - target: {fileID: 4333229364648180, guid: 7b08fe66855e56c4991a3055447b7355, type: 3}
      propertyPath: m_LocalRotation.z
      value: -0
      objectReference: {fileID: 0}
    - target: {fileID: 4333229364648180, guid: 7b08fe66855e56c4991a3055447b7355, type: 3}
      propertyPath: m_LocalRotation.w
      value: 1
      objectReference: {fileID: 0}
    - target: {fileID: 4333229364648180, guid: 7b08fe66855e56c4991a3055447b7355, type: 3}
      propertyPath: m_RootOrder
      value: 4
      objectReference: {fileID: 0}
    - target: {fileID: 4333229364648180, guid: 7b08fe66855e56c4991a3055447b7355, type: 3}
      propertyPath: m_LocalEulerAnglesHint.x
      value: 0
      objectReference: {fileID: 0}
    - target: {fileID: 4333229364648180, guid: 7b08fe66855e56c4991a3055447b7355, type: 3}
      propertyPath: m_LocalEulerAnglesHint.y
      value: 0
      objectReference: {fileID: 0}
    - target: {fileID: 4333229364648180, guid: 7b08fe66855e56c4991a3055447b7355, type: 3}
      propertyPath: m_LocalEulerAnglesHint.z
      value: 0
      objectReference: {fileID: 0}
    - target: {fileID: 4333229364648180, guid: 7b08fe66855e56c4991a3055447b7355, type: 3}
      propertyPath: m_LocalScale.x
      value: 0.55366
      objectReference: {fileID: 0}
    - target: {fileID: 4333229364648180, guid: 7b08fe66855e56c4991a3055447b7355, type: 3}
      propertyPath: m_LocalScale.y
      value: 0.55366
      objectReference: {fileID: 0}
    - target: {fileID: 4333229364648180, guid: 7b08fe66855e56c4991a3055447b7355, type: 3}
      propertyPath: m_LocalScale.z
      value: 0.011073199
      objectReference: {fileID: 0}
    m_RemovedComponents: []
  m_SourcePrefab: {fileID: 100100000, guid: 7b08fe66855e56c4991a3055447b7355, type: 3}
--- !u!4 &9141489239539363623 stripped
Transform:
  m_CorrespondingSourceObject: {fileID: 4333229364648180, guid: 7b08fe66855e56c4991a3055447b7355,
    type: 3}
  m_PrefabInstance: {fileID: 9138504080317888467}
  m_PrefabAsset: {fileID: 0}
--- !u!1001 &9193050158669476557
PrefabInstance:
  m_ObjectHideFlags: 0
  serializedVersion: 2
  m_Modification:
    m_TransformParent: {fileID: 7536174077937731680}
    m_Modifications:
    - target: {fileID: 1209775343628724, guid: ca160a9ce634ac5428075b1cf5ef480e, type: 3}
      propertyPath: m_Name
      value: tree_3 (4)
      objectReference: {fileID: 0}
    - target: {fileID: 4175952001122458, guid: ca160a9ce634ac5428075b1cf5ef480e, type: 3}
      propertyPath: m_LocalPosition.x
      value: 0
      objectReference: {fileID: 0}
    - target: {fileID: 4175952001122458, guid: ca160a9ce634ac5428075b1cf5ef480e, type: 3}
      propertyPath: m_LocalPosition.y
      value: 0
      objectReference: {fileID: 0}
    - target: {fileID: 4175952001122458, guid: ca160a9ce634ac5428075b1cf5ef480e, type: 3}
      propertyPath: m_LocalPosition.z
      value: 0
      objectReference: {fileID: 0}
    - target: {fileID: 4175952001122458, guid: ca160a9ce634ac5428075b1cf5ef480e, type: 3}
      propertyPath: m_LocalRotation.x
      value: -1.776357e-15
      objectReference: {fileID: 0}
    - target: {fileID: 4175952001122458, guid: ca160a9ce634ac5428075b1cf5ef480e, type: 3}
      propertyPath: m_LocalRotation.y
      value: 0.62468576
      objectReference: {fileID: 0}
    - target: {fileID: 4175952001122458, guid: ca160a9ce634ac5428075b1cf5ef480e, type: 3}
      propertyPath: m_LocalRotation.z
      value: -0
      objectReference: {fileID: 0}
    - target: {fileID: 4175952001122458, guid: ca160a9ce634ac5428075b1cf5ef480e, type: 3}
      propertyPath: m_LocalRotation.w
      value: 0.7808763
      objectReference: {fileID: 0}
    - target: {fileID: 4175952001122458, guid: ca160a9ce634ac5428075b1cf5ef480e, type: 3}
      propertyPath: m_RootOrder
      value: 0
      objectReference: {fileID: 0}
    - target: {fileID: 4175952001122458, guid: ca160a9ce634ac5428075b1cf5ef480e, type: 3}
      propertyPath: m_LocalEulerAnglesHint.x
      value: 0
      objectReference: {fileID: 0}
    - target: {fileID: 4175952001122458, guid: ca160a9ce634ac5428075b1cf5ef480e, type: 3}
      propertyPath: m_LocalEulerAnglesHint.y
      value: 77.318
      objectReference: {fileID: 0}
    - target: {fileID: 4175952001122458, guid: ca160a9ce634ac5428075b1cf5ef480e, type: 3}
      propertyPath: m_LocalEulerAnglesHint.z
      value: 0
      objectReference: {fileID: 0}
    - target: {fileID: 4175952001122458, guid: ca160a9ce634ac5428075b1cf5ef480e, type: 3}
      propertyPath: m_LocalScale.x
      value: 1
      objectReference: {fileID: 0}
    - target: {fileID: 4175952001122458, guid: ca160a9ce634ac5428075b1cf5ef480e, type: 3}
      propertyPath: m_LocalScale.y
      value: 1
      objectReference: {fileID: 0}
    - target: {fileID: 4175952001122458, guid: ca160a9ce634ac5428075b1cf5ef480e, type: 3}
      propertyPath: m_LocalScale.z
      value: 1
      objectReference: {fileID: 0}
    - target: {fileID: 4538673368209374423, guid: ca160a9ce634ac5428075b1cf5ef480e,
        type: 3}
      propertyPath: m_Center.x
      value: -0.03
      objectReference: {fileID: 0}
    - target: {fileID: 4538673368209374423, guid: ca160a9ce634ac5428075b1cf5ef480e,
        type: 3}
      propertyPath: m_Center.y
      value: 4.07
      objectReference: {fileID: 0}
    - target: {fileID: 4538673368209374423, guid: ca160a9ce634ac5428075b1cf5ef480e,
        type: 3}
      propertyPath: m_Center.z
      value: -0.19
      objectReference: {fileID: 0}
    - target: {fileID: 4538673368209374423, guid: ca160a9ce634ac5428075b1cf5ef480e,
        type: 3}
      propertyPath: m_Size.x
      value: 1.44
      objectReference: {fileID: 0}
    - target: {fileID: 4538673368209374423, guid: ca160a9ce634ac5428075b1cf5ef480e,
        type: 3}
      propertyPath: m_Size.y
      value: 8.23
      objectReference: {fileID: 0}
    - target: {fileID: 4538673368209374423, guid: ca160a9ce634ac5428075b1cf5ef480e,
        type: 3}
      propertyPath: m_Size.z
      value: 1.23
      objectReference: {fileID: 0}
    m_RemovedComponents: []
  m_SourcePrefab: {fileID: 100100000, guid: ca160a9ce634ac5428075b1cf5ef480e, type: 3}
--- !u!4 &9194820365622702679 stripped
Transform:
  m_CorrespondingSourceObject: {fileID: 4175952001122458, guid: ca160a9ce634ac5428075b1cf5ef480e,
    type: 3}
  m_PrefabInstance: {fileID: 9193050158669476557}
  m_PrefabAsset: {fileID: 0}
